80C4XZ2,GHN3479,C01
40C4XZ2,GHN3480,C01
3ZB4XZ2,GHN3481,C01
JYB4XZ2,GHN3482,C01
HK02XZ2,GHN3483,C01
DN72XZ2,GHN3484,C01
7332XZ2,GHN3485,C01
JCY4WZ2,GHN3486,C01
8MPKWZ2,GHN3487,C01
3L32XZ2,GHN3488,C01
5315WZ2,GHN3489,C01
1J02XZ2,GHN3490,C01
1SZ4WZ2,GHN3491,C01
BJ02XZ2,GHN3492,C01
1315WZ2,GHN3493,C01
5L32XZ2,GHN3494,C01
HKZ4WZ2,GHN3495,C01
7QC4XZ2,GHN3496,C01
7215WZ2,GHN3497,C01
8J05WZ2,GHN3498,C01
DZB4XZ2,GHN3499,C01
8W62XZ2,GHN3500,C01
49Z4WZ2,GHN3501,C01
6W62XZ2,GHN3502,C01
JV62XZ2,GHN3503,C01
8YB4XZ2,GHN3504,C02
B132XZ2,GHN3505,C02
6NY4WZ2,GHN3506,C02
1NZ1XZ2,GHN3507,C02
JL05WZ2,GHN3508,C02
DYB4XZ2,GHN3509,C02
9XY1XZ2,GHN3510,C02
FM72XZ2,GHN3511,C02
6215WZ2,GHN3512,C02
2H72XZ2,GHN3513,C02
BYY1XZ2,GHN3514,C02
BH72XZ2,GHN3515,C02
DG72XZ2,GHN3516,C02
90C4XZ2,GHN3517,C02
4NZ1XZ2,GHN3518,C02
3J72XZ2,GHN3519,C02
7ZB4XZ2,GHN3520,C02
JJ72XZ2,GHN3521,C03
BM32XZ2,GHN3522,C03
1132XZ2,GHN3523,C03
CJY4WZ2,GHN3524,C03
6H72XZ2,GHN3525,C03
5YB4XZ2,GHN3526,C03
3K72XZ2,GHN3527,C03
DLPKWZ2,GHN3528,C03
CL72XZ2,GHN3529,C03
HLPKWZ2,GHN3530,C03
C132XZ2,GHN3531,C03
1L02XZ2,GHN3532,C03
3SC4XZ2,GHN3533,C03
FZB4XZ2,GHN3534,C03
4N32XZ2,GHN3535,C03
8RC4XZ2,GHN3536,C03
7V22XZ2,GHN3537,C03
CJ72XZ2,GHN3538,C03
F0C4XZ2,GHN3539,C03
FH72XZ2,GHN3540,C03
BYB4XZ2,GHN3541,C03
GV62XZ2,GHN3542,C03
BGY4WZ2,GHN3543,C03
CR12XZ2,GHN3544,C03
1KZ4WZ2,GHN3545,C04
8R12XZ2,GHN3546,C04
5PY4WZ2,GHN3547,C04
G5Z4WZ2,GHN3548,C04
3XZ4WZ2,GHN3549,C04
7SY1XZ2,GHN3550,C04
2LZ4WZ2,GHN3551,C04
16Z4WZ2,GHN3552,C04
4MZ4WZ2,GHN3553,C04
6QY4WZ2,GHN3554,C04
FZY4WZ2,GHN3555,C04
JPPKWZ2,GHN3556,C04
J505WZ2,GHN3557,C04
7VY4WZ2,GHN3558,C04
2612XZ2,GHN3559,C04
G1NKWZ2,GHN3560,C04
3WZ4WZ2,GHN3561,C04
9G42XZ2,GHN3562,C04
B4Z4WZ2,GHN3563,C04
9Q52XZ2,GHN3564,C04
B2NKWZ2,GHN3565,C04
JXY4WZ2,GHN3566,C04
7RY4WZ2,GHN3567,C05
2942XZ2,GHN3568,C05
JD12XZ2,GHN3569,C05
G942XZ2,GHN3570,C05
5G42XZ2,GHN3571,C05
D5Z4WZ2,GHN3572,C05
JNPKWZ2,GHN3573,C05
8ZY4WZ2,GHN3574,C05
3ZY4WZ2,GHN3575,C05
FG42XZ2,GHN3576,C05
5G12XZ2,GHN3577,C05
FQPKWZ2,GHN3578,C05
B6Z4WZ2,GHN3579,C05
HMPKWZ2,GHN3580,C05
6M05WZ2,GHN3581,C05
7C32XZ2,GHN3582,C05
J612XZ2,GHN3583,C05
1KY4WZ2,GHN3584,C05
G812XZ2,GHN3585,C06
JDY4WZ2,GHN3586,C06
H722XZ2,GHN3587,C06
BVZ4WZ2,GHN3588,C06
DSZ4WZ2,GHN3589,C06
BYY4WZ2,GHN3590,C06
3605WZ2,GHN3591,C06
J7Z4WZ2,GHN3592,C06
4M05WZ2,GHN3593,C06
7305WZ2,GHN3594,C06
5H62XZ2,GHN3595,C06
DF42XZ2,GHN3596,C06
G405WZ2,GHN3597,C06
HTZ4WZ2,GHN3598,C06
4005WZ2,GHN3599,C06
8DZ4WZ2,GHN3600,C06
8F42XZ2,GHN3601,C06
FB42XZ2,GHN3602,C06
9XZ4WZ2,GHN3603,C06
H405WZ2,GHN3604,C06
2205WZ2,GHN3605,C06
G3Z4WZ2,GHN3606,C06
7KY4WZ2,GHN3607,C06
BR05WZ2,GHN3608,C06
3KY4WZ2,GHN3609,C06
C942XZ2,GHN3610,C06
1F05WZ2,GHN3611,C06
JR05WZ2,GHN3612,C06
93Z4WZ2,GHN3613,C07
4ZZ4WZ2,GHN3614,C07
J105WZ2,GHN3615,C07
HNZ4WZ2,GHN3616,C07
7505WZ2,GHN3617,C07
7XZ4WZ2,GHN3618,C07
3Z05WZ2,GHN3619,C07
7205WZ2,GHN3620,C07
DF12XZ2,GHN3621,C07
BG12XZ2,GHN3622,C07
6MY4WZ2,GHN3623,C07
2YZ4WZ2,GHN3624,C07
70Z4WZ2,GHN3625,C07
1205WZ2,GHN3626,C07
15Z4WZ2,GHN3627,C07
1WZ4WZ2,GHN3629,C07
H305WZ2,GHN3630,C07
FR05WZ2,GHN3631,C07
FGZ4WZ2,GHN3632,C07
5V05WZ2,GHN3633,C07
JVZ4WZ2,GHN3634,C07
6GY4WZ2,GHN3635,C07
75Z4WZ2,GHN3636,C07
3B22XZ2,GHN3637,C07
G105WZ2,GHN3638,C08
GD32XZ2,GHN3639,C08
5P05WZ2,GHN3640,C08
1912XZ2,GHN3641,C08
6712XZ2,GHN3642,C08
D4Z4WZ2,GHN3643,C08
J4Z4WZ2,GHN3644,C08
8V05WZ2,GHN3645,C08
HYY4WZ2,GHN3646,C08
3K05WZ2,GHN3647,C08
7R05WZ2,GHN3648,C08
FYZ4WZ2,GHN3649,C08
H705WZ2,GHN3650,C08
J6T7XZ2,GHN3651,C08
9M05WZ2,GHN3652,C08
1B42XZ2,GHN3653,C09
GL05WZ2,GHN3654,C09
CNPKWZ2,GHN3655,C09
GZZ4WZ2,GHN3656,C09
HL05WZ2,GHN3657,C09
3WRKWZ2,GHN3658,C09
FWRKWZ2,GHN3659,C09
6QPKWZ2,GHN3660,C09
38C9WZ2,GHN3661,C09
6TRKWZ2,GHN3662,C09
DJPKWZ2,GHN3663,C09
5GZ4WZ2,GHN3664,C09
3J52XZ2,GHN3665,C09
6HNKWZ2,GHN3666,C09
GKPKWZ2,GHN3667,C09
8GY4WZ2,GHN3668,C10
J3QKWZ2,GHN3669,C10
92NKWZ2,GHN3670,C10
DNPKWZ2,GHN3671,C10
5RZ4WZ2,GHN3672,C10
DHNKWZ2,GHN3673,C10
62NKWZ2,GHN3674,C10
GMPKWZ2,GHN3675,C10
6PY4WZ2,GHN3676,C10
G612XZ2,GHN3677,C10
3CPKWZ2,GHN3679,C10
9WQKWZ2,GHN3680,C10
8105WZ2,GHN3681,C10
GWZ4WZ2,GHN3682,C10
CFZ4WZ2,GHN3683,C10
HGZ4WZ2,GHN3684,C10
GHY4WZ2,GHN3685,C10
FWZ4WZ2,GHN3686,C10
5805WZ2,GHN3687,C10
4G62XZ2,GHN2404,C10
46Z4WZ2,GHN3688,C11
1N05WZ2,GHN3689,C11
65Z4WZ2,GHN3690,C11
GT05WZ2,GHN3691,C11
DS05WZ2,GHN3692,C11
8922XZ2,GHN3693,C11
BP05WZ2,GHN3694,C11
1Q52XZ2,GHN3695,C11
9ZY4WZ2,GHN3696,C11
CHZ4WZ2,GHN3697,C11
7VZ4WZ2,GHN3698,C11
C0Z4WZ2,GHN3699,C11
1GZ4WZ2,GHN3700,C11
3612XZ2,GHN3701,C11
24Z4WZ2,GHN3702,C11
8X62XZ2,GHN3703,C11
1P05WZ2,GHN3704,C11
2Z05WZ2,GHN3705,C11
8072XZ2,GHN3706,C11
1MZ4WZ2,GHN3707,C11
5XZ4WZ2,GHN3708,C12
GXY4WZ2,GHN3709,C12
C205WZ2,GHN3710,C12
BWZ4WZ2,GHN3711,C12
H4Z4WZ2,GHN3712,C12
60NKWZ2,GHN3713,C12
1922XZ2,GHN3714,C12
BC72XZ2,GHN3715,C12
F712XZ2,GHN3716,C12
HZY4WZ2,GHN3717,C12
GRZ4WZ2,GHN3718,C12
8VZ4WZ2,GHN3719,C12
DRZ4WZ2,GHN3720,C12
1HD9WZ2,GHN3721,C12
5QPKWZ2,GHN3722,C12
6705WZ2,GHN3723,C12
7QPKWZ2,GHN3724,C12
J905WZ2,GHN3725,C12
1605WZ2,GHN3726,C12
5PPKWZ2,GHN3727,C12
9LPKWZ2,GHN3728,C12
1KNKWZ2,GHN3729,C12
3115WZ2,GHN3730,C13
BJNKWZ2,GHN3731,C13
3QPKWZ2,GHN3732,C13
2F05WZ2,GHN3733,C13
62Z4WZ2,GHN3734,C13
34Z4WZ2,GHN3735,C13
G6C9WZ2,GHN3736,C13
B7C9WZ2,GHN3737,C13
8JNKWZ2,GHN3738,C13
6JNKWZ2,GHN3739,C13
J205WZ2,GHN3740,C13
BFD9WZ2,GHN3741,C13
JKZ4WZ2,GHN3742,C13
B805WZ2,GHN3743,C13
4705WZ2,GHN3744,C13
97Z4WZ2,GHN3745,C13
1LY4WZ2,GHN3746,C13
8Y05WZ2,GHN3747,C13
DKNKWZ2,GHN3748,C13
5T05WZ2,GHN3749,C14
GSZ4WZ2,GHN3750,C14
7DY4WZ2,GHN3751,C14
FBZ4WZ2,GHN3752,C14
9505WZ2,GHN3753,C14
FFY4WZ2,GHN3754,C14
B405WZ2,GHN3755,C14
JX05WZ2,GHN3756,C14
9405WZ2,GHN3757,C14
C005WZ2,GHN3758,C14
7W05WZ2,GHN3759,C14
GFY4WZ2,GHN3760,C14
8QZ4WZ2,GHN3761,C14
H2QKWZ2,GHN3762,C14
3G42XZ2,GHN3763,C14
9VZ4WZ2,GHN3764,C14
5X02XZ2,GHN3765,C14
2BZ4WZ2,GHN3766,C14
1VRKWZ2,GHN3767,C14
FR02XZ2,GHN3768,C14
HDD9WZ2,GHN3769,C14
D612XZ2,GHN3770,C14
JSZ4WZ2,GHN3771,C14
2N05WZ2,GHN3772,C15
8WZ4WZ2,GHN3773,C15
HV62XZ2,GHN3774,C15
JTZ4WZ2,GHN3775,C15
2H62XZ2,GHN3776,C15
6G12XZ2,GHN3777,C15
8V62XZ2,GHN3778,C15
GH32XZ2,GHN3779,C15
2TZ4WZ2,GHN3780,C15
DR4NVZ2,GHN3781,C15
CXZ4WZ2,GHN3782,C15
80Z4WZ2,GHN3783,C15
1072XZ2,GHN3784,C15
1GD9WZ2,GHN3785,C15
95T7XZ2,GHN3786,C15
DFY4WZ2,GHN3787,C15
H712XZ2,GHN3788,C15
B205WZ2,GHN3789,C15
6H52XZ2,GHN3790,C15
D0Z4WZ2,GHN3791,C15
BFZ4WZ2,GHN3792,C15
2P05WZ2,GHN3793,C15
D005WZ2,GHN3794,C15
4ZY4WZ2,GHN3795,C15
96Z4WZ2,GHN3796,C15
HWZ4WZ2,GHN3797,C15
CK05WZ2,GHN3798,C15
4S02XZ2,GHN3799,C15
6H62XZ2,GHN3800,C15
CB32XZ2,GHN3801,C16
9QZ4WZ2,GHN3802,C16
4X05WZ2,GHN3803,C16
CYY4WZ2,GHN3804,C16
8N05WZ2,GHN3805,C16
JHNKWZ2,GHN3806,C16
6P05WZ2,GHN3807,C16
BZY4WZ2,GHN3808,C16
7C72XZ2,GHN3809,C16
5T4NVZ2,GHN3810,C16
2VRKWZ2,GHN3811,C16
JMPKWZ2,GHN3812,C16
1415WZ2,GHN3813,C16
JH05WZ2,GHN3814,C16
H605WZ2,GHN3815,C16
9605WZ2,GHN3816,C16
HWQKWZ2,GHN3817,C16
1JZ4WZ2,GHN3818,C16
5VRKWZ2,GHN3819,C16
CKPKWZ2,GHN3820,C16
H905WZ2,GHN3821,C16
B905WZ2,GHN3822,C16
FFD9WZ2,GHN3823,C16
HCY4WZ2,GHN3824,C16
1TB9WZ2,GHN3825,C16
2605WZ2,GHN3826,C17
G605WZ2,GHN3827,C17
G6Z4WZ2,GHN3828,C17
77T7XZ2,GHN3829,C17
8QPKWZ2,GHN3830,C17
H6C9WZ2,GHN3831,C17
3JNKWZ2,GHN3832,C17
J305WZ2,GHN3833,C17
3DD9WZ2,GHN3834,C17
HJPKWZ2,GHN3835,C17
9GD9WZ2,GHN3836,C17
DFD9WZ2,GHN3837,C17
1905WZ2,GHN3838,C17
D805WZ2,GHN3839,C17
2NPKWZ2,GHN3840,C17
G505WZ2,GHN3841,C17
4QPKWZ2,GHN3842,C17
F705WZ2,GHN3843,C17
9J05WZ2,GHN3844,C17
7TB9WZ2,GHN3845,C17
8315WZ2,GHN3846,C17
FQY4WZ2,GHN3847,C17
8805WZ2,GHN3848,C17
2705WZ2,GHN3849,C17
G705WZ2,GHN3850,C17
6LY4WZ2,GHN3851,C17
HVB9WZ2,GHN3852,C17
28D9WZ2,GHN3853,C18
4WRKWZ2,GHN3854,C18
F0Z4WZ2,GHN3855,C18
F315WZ2,GHN3856,C18
9FD9WZ2,GHN3857,C18
5JZ4WZ2,GHN3858,C18
J172XZ2,GHN3859,C18
HK05WZ2,GHN3860,C18
3315WZ2,GHN3861,C18
C415WZ2,GHN3862,C18
GBPKWZ2,GHN3863,C18
JW62XZ2,GHN3864,C18
F9D9WZ2,GHN3865,C18
8D12XZ2,GHN3866,C18
9NPKWZ2,GHN3867,C18
95D9WZ2,GHN3868,C18
57MKWZ2,GHN3869,C18
HFD9WZ2,GHN3870,C18
DMNKWZ2,GHN3871,C18
C2NKWZ2,GHN3872,C18
3RZ4WZ2,GHN3873,C19
43NKWZ2,GHN3874,C19
87Z4WZ2,GHN3875,C19
H115WZ2,GHN3876,C19
8NY4WZ2,GHN3877,C19
89Z4WZ2,GHN3878,C19
2K05WZ2,GHN3879,C19
B7Z4WZ2,GHN3880,C19
7LY4WZ2,GHN3881,C19
5KZ4WZ2,GHN3882,C19
J9Z4WZ2,GHN3883,C19
BWRKWZ2,GHN3884,C19
J8Z4WZ2,GHN3885,C19
DC05WZ2,GHN3886,C19
5B05WZ2,GHN3887,C19
BVRKWZ2,GHN3888,C19
1215WZ2,GHN3889,C19
CGD9WZ2,GHN3890,C19
49Y4WZ2,GHN3891,C19
8VRKWZ2,GHN3892,C19
3D05WZ2,GHN3893,C19
2J22XZ2,GHN3894,C19
HG22XZ2,GHN3895,C19
JY32XZ2,GHN3896,C20
C522XZ2,GHN3897,C20
7052XZ2,GHN3898,C20
JZ42XZ2,GHN3899,C20
HJZ1XZ2,GHN3900,C20
BH02XZ2,GHN3901,C20
8J22XZ2,GHN3902,C20
BLZ1XZ2,GHN3903,C20
4R02XZ2,GHN3904,C20
DW62XZ2,GHN3905,C20
34R7XZ2,GHN3906,C20
7K02XZ2,GHN3907,C20
G902XZ2,GHN3908,C20
6M12XZ2,GHN3909,C20
2722XZ2,GHN3910,C20
F642XZ2,GHN3911,C20
8P12XZ2,GHN3912,C20
64V7XZ2,GHN3913,C20
8R02XZ2,GHN3914,C20
94R7XZ2,GHN3915,C20
5Y12XZ2,GHN3916,C20
7V12XZ2,GHN3917,C20
2LZ1XZ2,GHN3918,C20
8Y62XZ2,GHN3919,C20
G642XZ2,GHN3920,C20
J542XZ2,GHN3921,C20
BR02XZ2,GHN3922,C21
CCC4XZ2,GHN3923,C21
JNR7XZ2,GHN3924,C21
9JZ1XZ2,GHN3925,C21
3C02XZ2,GHN3926,C21
3542XZ2,GHN3927,C21
5Z32XZ2,GHN3928,C21
GPZ1XZ2,GHN3929,C21
9NZ1XZ2,GHN3930,C21
8PZ1XZ2,GHN3931,C21
H4S7XZ2,GHN3932,C21
5L72XZ2,GHN3933,C21
3N32XZ2,GHN3934,C21
B4V7XZ2,GHN3935,C21
H802XZ2,GHN3936,C21
9J72XZ2,GHN3937,C21
9TZ4WZ2,GHN3938,C21
2R4NVZ2,GHN3939,C21
62T7XZ2,GHN3940,C21
D3T7XZ2,GHN3941,C21
9V12XZ2,GHN3942,C21
5942XZ2,GHN3943,C21
B1Z4WZ2,GHN3944,C21
H205WZ2,GHN3945,C21
BV62XZ2,GHN3946,C21
D812XZ2,GHN3947,C21
G5V7XZ2,GHN3948,C21
J462XZ2,GHN3949,C21
1Y32XZ2,GHN3950,C21
H1V7XZ2,GHN3951,C22
1742XZ2,GHN3952,C22
6542XZ2,GHN3953,C22
GW02XZ2,GHN3954,C22
1362XZ2,GHN3955,C22
5722XZ2,GHN3956,C22
DPZ1XZ2,GHN3957,C22
BQ02XZ2,GHN3958,C22
CB02XZ2,GHN3959,C22
7L32XZ2,GHN3960,C22
9F42XZ2,GHN3961,C22
3W62XZ2,GHN3962,C22
3642XZ2,GHN3963,C22
GS4NVZ2,GHN3964,C22
CY32XZ2,GHN3965,C22
CMV7XZ2,GHN3966,C22
BHZ4WZ2,GHN3967,C22
6ZZ4WZ2,GHN3968,C22
6QC4XZ2,GHN3969,C22
6K22XZ2,GHN3970,C22
5C05WZ2,GHN3971,C22
4Y32XZ2,GHN3972,C23
HMZ4WZ2,GHN3973,C23
FX22XZ2,GHN3974,C23
GZT7XZ2,GHN3975,C23
3Z32XZ2,GHN3976,C23
4R12XZ2,GHN3977,C23
B8D9WZ2,GHN3978,C23
FD05WZ2,GHN3979,C23
5YY1XZ2,GHN3980,C23
GP4NVZ2,GHN3981,C23
DX12XZ2,GHN3982,C23
7Y32XZ2,GHN3983,C23
3X94XZ2,GHN3984,C23
GW12XZ2,GHN3985,C23
G2T7XZ2,GHN3986,C23
5R02XZ2,GHN3987,C23
3Y12XZ2,GHN3988,C23
2072XZ2,GHN3989,C23
4X12XZ2,GHN3990,C23
9PZ4WZ2,GHN3991,C23
4YS7XZ2,GHN3992,C23
8J52XZ2,GHN3993,C23
CZ32XZ2,GHN3994,C23
84V7XZ2,GHN3995,C23
3G72XZ2,GHN3996,C23
9LS7XZ2,GHN3997,C23
1152XZ2,GHN3998,C23
6QZ1XZ2,GHN3999,C23
2Z32XZ2,GHN4000,C23
9V4NVZ2,GHN4001,C23
B642XZ2,GHN4002,C23
7V62XZ2,GHN4003,C24
J2T7XZ2,GHN4004,C24
3QC4XZ2,GHN4005,C24
8K02XZ2,GHN4006,C24
GPC4XZ2,GHN4007,C24
4DC4XZ2,GHN4008,C24
8S12XZ2,GHN4009,C24
B152XZ2,GHN4010,C24
2MZ1XZ2,GHN4011,C24
3H02XZ2,GHN4012,C24
3XZ1XZ2,GHN4013,C24
8SZ1XZ2,GHN4014,C24
DW02XZ2,GHN4015,C24
DZ32XZ2,GHN4016,C24
32Z4WZ2,GHN4017,C24
DX05WZ2,GHN4018,C24
GH22XZ2,GHN4019,C24
DR02XZ2,GHN4020,C24
4K72XZ2,GHN4021,C24
JKZ1XZ2,GHN4022,C24
JR4NVZ2,GHN4023,C24
J072XZ2,GHN4024,C24
8B02XZ2,GHN4025,C24
4612XZ2,GHN4026,C24
G315WZ2,GHN4027,C25
5Q12XZ2,GHN4028,C25
2Z42XZ2,GHN4029,C25
1105WZ2,GHN4030,C25
BJ22XZ2,GHN4031,C25
4N4NVZ2,GHN4032,C25
1562XZ2,GHN4033,C25
9C05WZ2,GHN4034,C25
3Z12XZ2,GHN4035,C25
6F05WZ2,GHN4036,C25
42Z4WZ2,GHN4037,C25
9072XZ2,GHN4038,C25
GK02XZ2,GHN4039,C25
BZZ4WZ2,GHN4040,C25
FNZ4WZ2,GHN4041,C25
JM4NVZ2,GHN4042,C25
JH22XZ2,GHN4043,C25
1R4NVZ2,GHN4044,C25
5Y32XZ2,GHN4045,C25
7KZ4WZ2,GHN4046,C26
DNZ4WZ2,GHN4047,C26
GLV7XZ2,GHN4048,C26
DQ12XZ2,GHN4049,C26
BS02XZ2,GHN4050,C26
GZY1XZ2,GHN4051,C26
BR12XZ2,GHN4052,C26
B722XZ2,GHN4053,C26
8B32XZ2,GHN4054,C26
4742XZ2,GHN4055,C26
3Y32XZ2,GHN4056,C26
8X32XZ2,GHN4057,C26
8542XZ2,GHN4058,C26
8942XZ2,GHN4059,C26
BZ32XZ2,GHN4060,C26
DD32XZ2,GHN4061,C26
7P12XZ2,GHN4062,C26
J4S7XZ2,GHN4063,C26
6152XZ2,GHN4064,C26
7F12XZ2,GHN4065,C26
4Z32XZ2,GHN4066,C26
27S7XZ2,GHN4067,C26
25S7XZ2,GHN4068,C26
BQC4XZ2,GHN4069,C26
6T32XZ2,GHN4070,C26
FWD4XZ2,GHN4071,C26
J932XZ2,GHN4072,C26
4T12XZ2,GHN4073,C26
5X12XZ2,GHN4074,C26
7542XZ2,GHN4075,C26
6F12XZ2,GHN4076,C27
D152XZ2,GHN4077,C27
JC32XZ2,GHN4078,C27
7922XZ2,GHN4079,C27
DC32XZ2,GHN4080,C27
6B22XZ2,GHN4081,C27
HS05WZ2,GHN4082,C27
HW94XZ2,GHN4083,C27
4X32XZ2,GHN4084,C27
CH72XZ2,GHN4085,C27
7YZ4WZ2,GHN4086,C27
1V72XZ2,GHN4087,C27
JPZ1XZ2,GHN4088,C27
JG22XZ2,GHN4089,C27
3YZ4WZ2,GHN4090,C27
17S7XZ2,GHN4091,C27
9V22XZ2,GHN4092,C27
HZZ4WZ2,GHN4093,C27
7462XZ2,GHN4094,C27
GP12XZ2,GHN4095,C27
H422XZ2,GHN4096,C28
DK22XZ2,GHN4097,C28
8SY4WZ2,GHN4098,C28
B9Z4WZ2,GHN4099,C28
DJ72XZ2,GHN4100,C28
BK02XZ2,GHN4101,C28
2SY1XZ2,GHN4102,C28
FQ4NVZ2,GHN4103,C28
J0C4XZ2,GHN4104,C28
1B22XZ2,GHN4105,C28
11C4XZ2,GHN4106,C28
CJ05WZ2,GHN4107,C28
F072XZ2,GHN4108,C28
FW72XZ2,GHN4109,C29
JN52XZ2,GHN4110,C29
JY42XZ2,GHN4111,C29
GC32XZ2,GHN4112,C29
HD05WZ2,GHN4113,C29
FT05WZ2,GHN4114,C29
5D32XZ2,GHN4115,C29
8Z32XZ2,GHN4116,C29
9152XZ2,GHN4117,C29
GY32XZ2,GHN4118,C29
5F4NVZ2,GHN4119,C29
C152XZ2,GHN4120,C29
9Z32XZ2,GHN4121,C29
1R12XZ2,GHN4122,C29
2QZ4WZ2,GHN4123,C30
C052XZ2,GHN4124,C30
6YZ4WZ2,GHN4125,C30
JW02XZ2,GHN4126,C30
HW02XZ2,GHN4127,C30
BX02XZ2,GHN4128,C30
FD32XZ2,GHN4129,C30
9B32XZ2,GHN4130,C30
6P4NVZ2,GHN4131,C30
HRC4XZ2,GHN4132,C30
1Q12XZ2,GHN4133,C30
61Z4WZ2,GHN4134,C31
HQY4WZ2,GHN4135,C31
3X72XZ2,GHN4136,C31
CZZ4WZ2,GHN4137,C31
9PY4WZ2,GHN4138,C31
BT4NVZ2,GHN4139,C31
8Y32XZ2,GHN4140,C31
GJ02XZ2,GHN4141,C31
3D32XZ2,GHN4142,C31
CQC4XZ2,GHN4143,C31
9X62XZ2,GHN4144,C31
